ID:3
ExeStack:
string varf
varf=prg3.txt; OpenFile{fileName='null', varName='null'};; int varc; readFile(varf,varc);; print(varc); readFile(varf,varc);; print(varc); closeFile(varf);
Symbol Table:
OutputList:
Heap:
FileTable:
=============================================
ID:3
ExeStack:
varf=prg3.txt; OpenFile{fileName='null', varName='null'};; int varc; readFile(varf,varc);; print(varc); readFile(varf,varc);; print(varc); closeFile(varf);
Symbol Table:
varf-->0
OutputList:
Heap:
FileTable:
=============================================
ID:3
ExeStack:
varf=prg3.txt
OpenFile{fileName='null', varName='null'};; int varc; readFile(varf,varc);; print(varc); readFile(varf,varc);; print(varc); closeFile(varf);
Symbol Table:
varf-->0
OutputList:
Heap:
FileTable:
=============================================
ID:3
ExeStack:
OpenFile{fileName='null', varName='null'};; int varc; readFile(varf,varc);; print(varc); readFile(varf,varc);; print(varc); closeFile(varf);
Symbol Table:
varf-->prg3.txt
OutputList:
Heap:
FileTable:
=============================================
ID:3
ExeStack:
OpenFile{fileName='null', varName='null'};
int varc; readFile(varf,varc);; print(varc); readFile(varf,varc);; print(varc); closeFile(varf);
Symbol Table:
varf-->prg3.txt
OutputList:
Heap:
FileTable:
=============================================
ID:3
ExeStack:
int varc; readFile(varf,varc);; print(varc); readFile(varf,varc);; print(varc); closeFile(varf);
Symbol Table:
varf-->prg3.txt
OutputList:
Heap:
FileTable:
0-->prg3.txt
=============================================
ID:3
ExeStack:
int varc
readFile(varf,varc);; print(varc); readFile(varf,varc);; print(varc); closeFile(varf);
Symbol Table:
varf-->prg3.txt
OutputList:
Heap:
FileTable:
0-->prg3.txt
=============================================
ID:3
ExeStack:
readFile(varf,varc);; print(varc); readFile(varf,varc);; print(varc); closeFile(varf);
Symbol Table:
varf-->prg3.txt
varc-->0
OutputList:
Heap:
FileTable:
0-->prg3.txt
=============================================
ID:3
ExeStack:
readFile(varf,varc);
print(varc); readFile(varf,varc);; print(varc); closeFile(varf);
Symbol Table:
varf-->prg3.txt
varc-->0
OutputList:
Heap:
FileTable:
0-->prg3.txt
=============================================
ID:3
ExeStack:
print(varc); readFile(varf,varc);; print(varc); closeFile(varf);
Symbol Table:
varf-->prg3.txt
varc-->0
OutputList:
Heap:
FileTable:
0-->prg3.txt
=============================================
ID:3
ExeStack:
print(varc)
readFile(varf,varc);; print(varc); closeFile(varf);
Symbol Table:
varf-->prg3.txt
varc-->0
OutputList:
Heap:
FileTable:
0-->prg3.txt
=============================================
ID:3
ExeStack:
readFile(varf,varc);; print(varc); closeFile(varf);
Symbol Table:
varf-->prg3.txt
varc-->0
OutputList:
0
Heap:
FileTable:
0-->prg3.txt
=============================================
ID:3
ExeStack:
readFile(varf,varc);
print(varc); closeFile(varf);
Symbol Table:
varf-->prg3.txt
varc-->0
OutputList:
0
Heap:
FileTable:
0-->prg3.txt
=============================================
ID:3
ExeStack:
print(varc); closeFile(varf);
Symbol Table:
varf-->prg3.txt
varc-->0
OutputList:
0
Heap:
FileTable:
0-->prg3.txt
=============================================
ID:3
ExeStack:
print(varc)
closeFile(varf);
Symbol Table:
varf-->prg3.txt
varc-->0
OutputList:
0
Heap:
FileTable:
0-->prg3.txt
=============================================
ID:3
ExeStack:
closeFile(varf);
Symbol Table:
varf-->prg3.txt
varc-->0
OutputList:
0
0
Heap:
FileTable:
0-->prg3.txt
=============================================
ID:3
ExeStack:
Symbol Table:
varf-->prg3.txt
varc-->0
OutputList:
0
0
Heap:
FileTable:
0-->prg3.txt
=============================================
ID:3
ExeStack:
string varf
varf=prg3.txt; OpenFile{fileName='null', varName='null'};; int varc; readFile(varf,varc);; print(varc); readFile(varf,varc);; print(varc); closeFile(varf);
Symbol Table:
OutputList:
Heap:
FileTable:
=============================================
ID:3
ExeStack:
varf=prg3.txt; OpenFile{fileName='null', varName='null'};; int varc; readFile(varf,varc);; print(varc); readFile(varf,varc);; print(varc); closeFile(varf);
Symbol Table:
varf-->0
OutputList:
Heap:
FileTable:
=============================================
ID:3
ExeStack:
varf=prg3.txt
OpenFile{fileName='null', varName='null'};; int varc; readFile(varf,varc);; print(varc); readFile(varf,varc);; print(varc); closeFile(varf);
Symbol Table:
varf-->0
OutputList:
Heap:
FileTable:
=============================================
ID:3
ExeStack:
OpenFile{fileName='null', varName='null'};; int varc; readFile(varf,varc);; print(varc); readFile(varf,varc);; print(varc); closeFile(varf);
Symbol Table:
varf-->prg3.txt
OutputList:
Heap:
FileTable:
=============================================
ID:3
ExeStack:
OpenFile{fileName='null', varName='null'};
int varc; readFile(varf,varc);; print(varc); readFile(varf,varc);; print(varc); closeFile(varf);
Symbol Table:
varf-->prg3.txt
OutputList:
Heap:
FileTable:
=============================================
ID:3
ExeStack:
int varc; readFile(varf,varc);; print(varc); readFile(varf,varc);; print(varc); closeFile(varf);
Symbol Table:
varf-->prg3.txt
OutputList:
Heap:
FileTable:
0-->prg3.txt
=============================================
ID:3
ExeStack:
int varc
readFile(varf,varc);; print(varc); readFile(varf,varc);; print(varc); closeFile(varf);
Symbol Table:
varf-->prg3.txt
OutputList:
Heap:
FileTable:
0-->prg3.txt
=============================================
ID:3
ExeStack:
readFile(varf,varc);; print(varc); readFile(varf,varc);; print(varc); closeFile(varf);
Symbol Table:
varf-->prg3.txt
varc-->0
OutputList:
Heap:
FileTable:
0-->prg3.txt
=============================================
ID:3
ExeStack:
readFile(varf,varc);
print(varc); readFile(varf,varc);; print(varc); closeFile(varf);
Symbol Table:
varf-->prg3.txt
varc-->0
OutputList:
Heap:
FileTable:
0-->prg3.txt
=============================================
ID:3
ExeStack:
print(varc); readFile(varf,varc);; print(varc); closeFile(varf);
Symbol Table:
varf-->prg3.txt
varc-->0
OutputList:
Heap:
FileTable:
0-->prg3.txt
=============================================
ID:3
ExeStack:
print(varc)
readFile(varf,varc);; print(varc); closeFile(varf);
Symbol Table:
varf-->prg3.txt
varc-->0
OutputList:
Heap:
FileTable:
0-->prg3.txt
=============================================
ID:3
ExeStack:
readFile(varf,varc);; print(varc); closeFile(varf);
Symbol Table:
varf-->prg3.txt
varc-->0
OutputList:
0
Heap:
FileTable:
0-->prg3.txt
=============================================
ID:3
ExeStack:
readFile(varf,varc);
print(varc); closeFile(varf);
Symbol Table:
varf-->prg3.txt
varc-->0
OutputList:
0
Heap:
FileTable:
0-->prg3.txt
=============================================
ID:3
ExeStack:
print(varc); closeFile(varf);
Symbol Table:
varf-->prg3.txt
varc-->0
OutputList:
0
Heap:
FileTable:
0-->prg3.txt
=============================================
ID:3
ExeStack:
print(varc)
closeFile(varf);
Symbol Table:
varf-->prg3.txt
varc-->0
OutputList:
0
Heap:
FileTable:
0-->prg3.txt
=============================================
ID:3
ExeStack:
closeFile(varf);
Symbol Table:
varf-->prg3.txt
varc-->0
OutputList:
0
0
Heap:
FileTable:
0-->prg3.txt
=============================================
ID:3
ExeStack:
Symbol Table:
varf-->prg3.txt
varc-->0
OutputList:
0
0
Heap:
FileTable:
0-->prg3.txt
=============================================
ID:3
ExeStack:
string varf
varf=prg3.txt; OpenFile{fileName='null', varName='null'};; int varc; readFile(varf,varc);; print(varc); readFile(varf,varc);; print(varc); closeFile(varf);
Symbol Table:
OutputList:
Heap:
FileTable:
=============================================
ID:3
ExeStack:
varf=prg3.txt; OpenFile{fileName='null', varName='null'};; int varc; readFile(varf,varc);; print(varc); readFile(varf,varc);; print(varc); closeFile(varf);
Symbol Table:
varf-->0
OutputList:
Heap:
FileTable:
=============================================
ID:3
ExeStack:
varf=prg3.txt
OpenFile{fileName='null', varName='null'};; int varc; readFile(varf,varc);; print(varc); readFile(varf,varc);; print(varc); closeFile(varf);
Symbol Table:
varf-->0
OutputList:
Heap:
FileTable:
=============================================
ID:3
ExeStack:
OpenFile{fileName='null', varName='null'};; int varc; readFile(varf,varc);; print(varc); readFile(varf,varc);; print(varc); closeFile(varf);
Symbol Table:
varf-->prg3.txt
OutputList:
Heap:
FileTable:
=============================================
ID:3
ExeStack:
OpenFile{fileName='null', varName='null'};
int varc; readFile(varf,varc);; print(varc); readFile(varf,varc);; print(varc); closeFile(varf);
Symbol Table:
varf-->prg3.txt
OutputList:
Heap:
FileTable:
=============================================
ID:3
ExeStack:
int varc; readFile(varf,varc);; print(varc); readFile(varf,varc);; print(varc); closeFile(varf);
Symbol Table:
varf-->prg3.txt
OutputList:
Heap:
FileTable:
0-->prg3.txt
=============================================
ID:3
ExeStack:
int varc
readFile(varf,varc);; print(varc); readFile(varf,varc);; print(varc); closeFile(varf);
Symbol Table:
varf-->prg3.txt
OutputList:
Heap:
FileTable:
0-->prg3.txt
=============================================
ID:3
ExeStack:
readFile(varf,varc);; print(varc); readFile(varf,varc);; print(varc); closeFile(varf);
Symbol Table:
varf-->prg3.txt
varc-->0
OutputList:
Heap:
FileTable:
0-->prg3.txt
=============================================
ID:3
ExeStack:
readFile(varf,varc);
print(varc); readFile(varf,varc);; print(varc); closeFile(varf);
Symbol Table:
varf-->prg3.txt
varc-->0
OutputList:
Heap:
FileTable:
0-->prg3.txt
=============================================
ID:3
ExeStack:
print(varc); readFile(varf,varc);; print(varc); closeFile(varf);
Symbol Table:
varf-->prg3.txt
varc-->0
OutputList:
Heap:
FileTable:
0-->prg3.txt
=============================================
ID:3
ExeStack:
print(varc)
readFile(varf,varc);; print(varc); closeFile(varf);
Symbol Table:
varf-->prg3.txt
varc-->0
OutputList:
Heap:
FileTable:
0-->prg3.txt
=============================================
ID:3
ExeStack:
readFile(varf,varc);; print(varc); closeFile(varf);
Symbol Table:
varf-->prg3.txt
varc-->0
OutputList:
0
Heap:
FileTable:
0-->prg3.txt
=============================================
ID:3
ExeStack:
readFile(varf,varc);
print(varc); closeFile(varf);
Symbol Table:
varf-->prg3.txt
varc-->0
OutputList:
0
Heap:
FileTable:
0-->prg3.txt
=============================================
ID:3
ExeStack:
print(varc); closeFile(varf);
Symbol Table:
varf-->prg3.txt
varc-->0
OutputList:
0
Heap:
FileTable:
0-->prg3.txt
=============================================
ID:3
ExeStack:
print(varc)
closeFile(varf);
Symbol Table:
varf-->prg3.txt
varc-->0
OutputList:
0
Heap:
FileTable:
0-->prg3.txt
=============================================
ID:3
ExeStack:
closeFile(varf);
Symbol Table:
varf-->prg3.txt
varc-->0
OutputList:
0
0
Heap:
FileTable:
0-->prg3.txt
=============================================
ID:3
ExeStack:
Symbol Table:
varf-->prg3.txt
varc-->0
OutputList:
0
0
Heap:
FileTable:
0-->prg3.txt
=============================================
ID:3
ExeStack:
string varf
varf=prg3.txt; OpenFile{fileName='null', varName='null'};; int varc; readFile(varf,varc);; print(varc); readFile(varf,varc);; print(varc); closeFile(varf);
Symbol Table:
OutputList:
Heap:
FileTable:
=============================================
ID:3
ExeStack:
varf=prg3.txt; OpenFile{fileName='null', varName='null'};; int varc; readFile(varf,varc);; print(varc); readFile(varf,varc);; print(varc); closeFile(varf);
Symbol Table:
varf-->0
OutputList:
Heap:
FileTable:
=============================================
ID:3
ExeStack:
varf=prg3.txt
OpenFile{fileName='null', varName='null'};; int varc; readFile(varf,varc);; print(varc); readFile(varf,varc);; print(varc); closeFile(varf);
Symbol Table:
varf-->0
OutputList:
Heap:
FileTable:
=============================================
ID:3
ExeStack:
OpenFile{fileName='null', varName='null'};; int varc; readFile(varf,varc);; print(varc); readFile(varf,varc);; print(varc); closeFile(varf);
Symbol Table:
varf-->prg3.txt
OutputList:
Heap:
FileTable:
=============================================
ID:3
ExeStack:
OpenFile{fileName='null', varName='null'};
int varc; readFile(varf,varc);; print(varc); readFile(varf,varc);; print(varc); closeFile(varf);
Symbol Table:
varf-->prg3.txt
OutputList:
Heap:
FileTable:
=============================================
ID:3
ExeStack:
int varc; readFile(varf,varc);; print(varc); readFile(varf,varc);; print(varc); closeFile(varf);
Symbol Table:
varf-->prg3.txt
OutputList:
Heap:
FileTable:
0-->prg3.txt
=============================================
ID:3
ExeStack:
int varc
readFile(varf,varc);; print(varc); readFile(varf,varc);; print(varc); closeFile(varf);
Symbol Table:
varf-->prg3.txt
OutputList:
Heap:
FileTable:
0-->prg3.txt
=============================================
ID:3
ExeStack:
readFile(varf,varc);; print(varc); readFile(varf,varc);; print(varc); closeFile(varf);
Symbol Table:
varf-->prg3.txt
varc-->0
OutputList:
Heap:
FileTable:
0-->prg3.txt
=============================================
ID:3
ExeStack:
readFile(varf,varc);
print(varc); readFile(varf,varc);; print(varc); closeFile(varf);
Symbol Table:
varf-->prg3.txt
varc-->0
OutputList:
Heap:
FileTable:
0-->prg3.txt
=============================================
ID:3
ExeStack:
print(varc); readFile(varf,varc);; print(varc); closeFile(varf);
Symbol Table:
varf-->prg3.txt
varc-->0
OutputList:
Heap:
FileTable:
0-->prg3.txt
=============================================
ID:3
ExeStack:
print(varc)
readFile(varf,varc);; print(varc); closeFile(varf);
Symbol Table:
varf-->prg3.txt
varc-->0
OutputList:
Heap:
FileTable:
0-->prg3.txt
=============================================
ID:3
ExeStack:
readFile(varf,varc);; print(varc); closeFile(varf);
Symbol Table:
varf-->prg3.txt
varc-->0
OutputList:
0
Heap:
FileTable:
0-->prg3.txt
=============================================
ID:3
ExeStack:
readFile(varf,varc);
print(varc); closeFile(varf);
Symbol Table:
varf-->prg3.txt
varc-->0
OutputList:
0
Heap:
FileTable:
0-->prg3.txt
=============================================
ID:3
ExeStack:
print(varc); closeFile(varf);
Symbol Table:
varf-->prg3.txt
varc-->0
OutputList:
0
Heap:
FileTable:
0-->prg3.txt
=============================================
ID:3
ExeStack:
print(varc)
closeFile(varf);
Symbol Table:
varf-->prg3.txt
varc-->0
OutputList:
0
Heap:
FileTable:
0-->prg3.txt
=============================================
ID:3
ExeStack:
closeFile(varf);
Symbol Table:
varf-->prg3.txt
varc-->0
OutputList:
0
0
Heap:
FileTable:
0-->prg3.txt
=============================================
ID:3
ExeStack:
Symbol Table:
varf-->prg3.txt
varc-->0
OutputList:
0
0
Heap:
FileTable:
0-->prg3.txt
=============================================
